Orwellâ€™s 1984, An (Un)Sentimental Analysis
…
Now, letâ€™s prepare our dataset for the sentiment analysis.

library(tidyr)

bigBro_sent <- bigBro_2 %>%
  inner_join(get_sentiments("bing")) %>%
  anti_join(stop_words) %>%
  count(chapter, sentiment) %>%
  spread(key = sentiment, value = n) %>%
  mutate(sentiment = positive - negative)
  
print(bigBro_sent)

## # A tibble: 26 x 4
##    chapter negative positive sentiment
##      <int>    <int>    <int>     <int>
##  1       1      261       94      -167
##  2       2      118       40       -78
##  3       3       93       52       -41
##  4       4       80       48       -32
##  5       5      189       88      -101
##  6       6       80       30       -50
##  7       7      173       55      -118
##  8       8      264      108      -156
##  9       9      125       46       -79
## 10      10      105       68       -37
## # â€¦ with 16 more rows
…
